Division,WeightClassKg,Place,Name,Team,BodyweightKg,Best3SquatKg,Best3BenchKg,Best3DeadliftKg,TotalKg,Equipment,Event,Sex,BirthDate
Boys,51.71,1,Andres Galan,Canton,49.08,145.15,70.31,147.42,362.87,Unlimited,SBD,M,
Boys,51.71,2,David Ayala Sanchez,Quinlan Ford,50.53,136.08,86.18,140.61,362.87,Unlimited,SBD,M,
Boys,51.71,3,Angel Delrio,Forney,51.26,104.33,54.43,113.4,272.16,Unlimited,SBD,M,
Boys,51.71,4,Jeremiah Smith,Crandall,51.71,99.79,45.36,106.59,251.74,Unlimited,SBD,M,
Boys,51.71,5,Chance Walker,Ferris,49.62,95.25,56.7,95.25,247.21,Unlimited,SBD,M,
Boys,51.71,DQ,Jaxon Black,Pollok Central,50.08,108.86,,,,Unlimited,SBD,M,
Boys,55.79,1,Braulio Rodriguez,Nevada Community,55.61,197.31,120.2,190.51,508.02,Unlimited,SBD,M,
Boys,55.79,2,Caleb Norton,Pollok Central,53.16,138.35,95.25,131.54,365.14,Unlimited,SBD,M,
Boys,55.79,3,Corbin Branch,Corsicana,55.52,124.74,86.18,149.69,360.61,Unlimited,SBD,M,
Boys,55.79,4,Graysen Patterson,Quinlan Ford,55.7,131.54,74.84,147.42,353.8,Unlimited,SBD,M,
Boys,55.79,5,Junior Otero,Crandall,54.88,120.2,70.31,127.01,317.51,Unlimited,SBD,M,
Boys,55.79,6,Israel Alaniz,Wills Point,55.79,117.93,77.11,111.13,306.17,Unlimited,SBD,M,
Boys,55.79,7,Jayden Rodriguez,Garland Naaman Forest,55.43,111.13,54.43,115.67,281.23,Unlimited,SBD,M,
Boys,55.79,DQ,Josue Galan,Canton,52.89,142.88,83.91,,,Unlimited,SBD,M,
Boys,59.87,1,Grayson Mixon,Wills Point,58.88,156.49,92.99,156.49,405.97,Unlimited,SBD,M,
Boys,59.87,2,Nathan Vargas,Forney,59.42,163.29,77.11,165.56,405.97,Unlimited,SBD,M,
Boys,59.87,3,Andres Garcia,Corsicana,58.6,158.76,83.91,154.22,396.89,Unlimited,SBD,M,
Boys,59.87,4,Fredy Segovia,Quinlan Ford,58.97,156.49,72.57,158.76,387.82,Unlimited,SBD,M,
Boys,59.87,5,Emanuel Mathews,Sunnyvale,58.79,147.42,83.91,149.69,381.02,Unlimited,SBD,M,
Boys,59.87,6,Seth Jenkins,Wills Point,58.6,154.22,92.99,129.27,376.48,Unlimited,SBD,M,
Boys,59.87,7,Jaxon Durham,Canton,59.24,127.01,77.11,154.22,358.34,Unlimited,SBD,M,
Boys,59.87,8,Cayme Ainsleigh,North Forney,58.97,127.01,70.31,136.08,333.39,Unlimited,SBD,M,
Boys,59.87,9,Cody Thompson,Nevada Community,58.69,111.13,65.77,129.27,306.17,Unlimited,SBD,M,
Boys,59.87,10,Maddox Williams,Crandall,58.79,104.33,77.11,102.06,283.5,Unlimited,SBD,M,
Boys,59.87,DQ,Peyton Spurlock,Terrell,57.52,102.06,,,,Unlimited,SBD,M,
Boys,67.13,1,Mauricio Morales,Ennis,65.41,174.63,99.79,188.24,462.66,Unlimited,SBD,M,
Boys,67.13,2,Quaylin Milligan,Forney,65.86,170.1,88.45,204.12,462.66,Unlimited,SBD,M,
Boys,67.13,3,Cristian Martinez,Corsicana,64.77,151.95,97.52,170.1,419.57,Unlimited,SBD,M,
Boys,67.13,4,Jeremy Abraham,Sunnyvale,66.95,165.56,90.72,161.03,417.3,Unlimited,SBD,M,
Boys,67.13,5,Ashton Jimenez,Mesquite Poteet,67.13,151.95,92.99,172.37,417.3,Unlimited,SBD,M,
Boys,67.13,6,Tyler Redd,Pollok Central,66.68,156.49,95.25,163.29,415.04,Unlimited,SBD,M,
Boys,67.13,7,Brody Smith,Quinlan Ford,64.68,172.37,72.57,165.56,410.5,Unlimited,SBD,M,
Boys,67.13,8,Noel Mares,Mesquite Horn,66.68,170.1,74.84,158.76,403.7,Unlimited,SBD,M,
Boys,67.13,9,Cooper O'Neal,Wills Point,65.41,154.22,90.72,154.22,399.16,Unlimited,SBD,M,
Boys,67.13,10,Joseph Hastings,Wills Point,66.32,149.69,92.99,154.22,396.89,Unlimited,SBD,M,
Boys,67.13,11,Mason Tigue,Quinlan Ford,63.78,131.54,70.31,136.08,337.93,Unlimited,SBD,M,
Boys,67.13,12,Mark Martinez,Terrell,64.23,61.23,52.16,117.93,231.33,Unlimited,SBD,M,
Boys,67.13,DQ,Chris Mansaray,Mesquite Poteet,60.6,129.27,,,,Unlimited,SBD,M,
Boys,67.13,DQ,Timothy Van Dyke,Nevada Community,62.69,142.88,77.11,,,Unlimited,SBD,M,
Boys,67.13,DQ,Hunter Vasquez,Crandall,62.14,124.74,61.23,,,Unlimited,SBD,M,
Boys,74.84,1,Max Sellers,Ennis,73.84,267.62,174.63,242.67,684.92,Unlimited,SBD,M,
Boys,74.84,2,Easton McMillan,Forney,74.39,272.16,181.44,226.8,680.39,Unlimited,SBD,M,
Boys,74.84,3,Adam Dean,Pollok Central,72.85,244.94,147.42,219.99,612.35,Unlimited,SBD,M,
Boys,74.84,4,Aurelio Barron,Everman,73.66,226.8,117.93,208.65,553.38,Unlimited,SBD,M,
Boys,74.84,5,Braydn Fowler,Pollok Central,73.48,199.58,147.42,197.31,544.31,Unlimited,SBD,M,
Boys,74.84,6,Jaquarius Malone,Ennis,70.94,204.12,122.47,174.63,501.22,Unlimited,SBD,M,
Boys,74.84,7,James Darwin,Sunnyvale,73.21,190.51,108.86,201.85,501.22,Unlimited,SBD,M,
Boys,74.84,8,Alejandro Cardiel,Wills Point,73.94,183.7,122.47,190.51,496.68,Unlimited,SBD,M,
Boys,74.84,9,Nathan Matthews,Pollok Central,71.3,158.76,131.54,185.97,476.27,Unlimited,SBD,M,
Boys,74.84,10,Chance Jowers,Canton,74.48,192.78,92.99,179.17,464.93,Unlimited,SBD,M,
Boys,74.84,11,Gabriel Hamil,Terrell,73.21,183.7,92.99,183.7,460.4,Unlimited,SBD,M,
Boys,74.84,12,Callan O'Neil,Canton,74.21,158.76,113.4,170.1,442.25,Unlimited,SBD,M,
Boys,74.84,13,Carson Miller,Nevada Community,72.76,161.03,86.18,176.9,424.11,Unlimited,SBD,M,
Boys,74.84,14,Martin Padron,Quinlan Ford,73.75,167.83,92.99,158.76,419.57,Unlimited,SBD,M,
Boys,74.84,15,Josue Cuna,Mesquite Poteet,74.84,149.69,97.52,172.37,419.57,Unlimited,SBD,M,
Boys,74.84,16,Stone Warren,Quinlan Ford,73.3,147.42,92.99,176.9,417.3,Unlimited,SBD,M,
Boys,74.84,17,Malachi Bowie,Duncanville,72.21,172.37,97.52,142.88,412.77,Unlimited,SBD,M,
Boys,74.84,18,Daniel Benitez,Nevada Community,74.3,142.88,108.86,154.22,405.97,Unlimited,SBD,M,
Boys,74.84,19,Chris Cortez,Mesquite Poteet,72.39,142.88,95.25,154.22,392.36,Unlimited,SBD,M,
Boys,74.84,20,Mikael Donald,Everman,74.75,142.88,74.84,147.42,365.14,Unlimited,SBD,M,
Boys,74.84,21,Chris Cantu,Ferris,73.66,127.01,79.38,151.95,358.34,Unlimited,SBD,M,
Boys,74.84,22,Cooper Smith,Canton,69.67,127.01,90.72,133.81,351.53,Unlimited,SBD,M,
Boys,74.84,23,Alex Patton,Duncanville,72.21,142.88,70.31,124.74,337.93,Unlimited,SBD,M,
Boys,74.84,DQ,Eddie Madrano,Crandall,73.94,,,,,Unlimited,SBD,M,
Boys,82.1,1,Sergio Ramirez,Corsicana,79.92,233.6,142.88,204.12,580.6,Unlimited,SBD,M,
Boys,82.1,2,Blake White,Quinlan Ford,79.02,213.19,145.15,204.12,562.45,Unlimited,SBD,M,
Boys,82.1,3,Geo Wafer,Corsicana,79.65,201.85,142.88,188.24,532.97,Unlimited,SBD,M,
Boys,82.1,4,Jeremiel Taylor,Corsicana,79.56,185.97,120.2,215.46,521.63,Unlimited,SBD,M,
Boys,82.1,5,Joshua Onoruah,Crandall,80.74,185.97,111.13,208.65,505.76,Unlimited,SBD,M,
Boys,82.1,6,Grayson Nolan,Crandall,80.2,183.7,133.81,185.97,503.49,Unlimited,SBD,M,
Boys,82.1,7,Shemar Williams,Everman,77.2,185.97,111.13,190.51,487.61,Unlimited,SBD,M,
Boys,82.1,8,Jackson Glenn,Ennis,79.02,170.1,106.59,208.65,485.34,Unlimited,SBD,M,
Boys,82.1,9,Zavius Alexander,Mesquite Poteet,82.01,170.1,131.54,183.7,485.34,Unlimited,SBD,M,
Boys,82.1,10,Levi Fredrick,Crandall,79.92,174.63,108.86,188.24,471.74,Unlimited,SBD,M,
Boys,82.1,11,Zaire Scott,Mesquite Poteet,79.02,163.29,90.72,181.44,435.45,Unlimited,SBD,M,
Boys,82.1,12,Ezra Melen,Mesquite Horn,76.11,147.42,90.72,161.03,399.16,Unlimited,SBD,M,
Boys,82.1,13,Isaac Briones,Crandall,75.93,136.08,97.52,147.42,381.02,Unlimited,SBD,M,
Boys,82.1,14,Joseph McKinney,Duncanville,77.75,145.15,81.65,142.88,369.68,Unlimited,SBD,M,
Boys,82.1,15,Jayden Luna,Ferris,82.1,138.35,86.18,142.88,367.41,Unlimited,SBD,M,
Boys,82.1,DQ,LaDatrick Robinson,Forney,81.56,226.8,111.13,,,Unlimited,SBD,M,
Boys,89.81,1,German Del Toro,Terrell,89.72,272.16,156.49,238.14,666.78,Unlimited,SBD,M,
Boys,89.81,2,Elvis Carrera,Ferris,88.45,240.4,163.29,229.06,632.76,Unlimited,SBD,M,
Boys,89.81,3,John Paul Akanga,Forney,89.72,226.8,158.76,208.65,594.21,Unlimited,SBD,M,
Boys,89.81,4,Austin Shackleford,Crandall,88.45,215.46,142.88,231.33,589.67,Unlimited,SBD,M,
Boys,89.81,5,Jake Samples,Wills Point,89.81,213.19,131.54,238.14,582.87,Unlimited,SBD,M,
Boys,89.81,6,Robert White,Sunnyvale,86.09,215.46,131.54,208.65,555.65,Unlimited,SBD,M,
Boys,89.81,7,Chime Nwanyanwu,Sunnyvale,85.46,199.58,102.06,219.99,521.63,Unlimited,SBD,M,
Boys,89.81,8,Kelsey Hunter,Crandall,86.73,185.97,133.81,195.04,514.83,Unlimited,SBD,M,
Boys,89.81,9,Duandrea Puilia,North Forney,86.55,183.7,111.13,213.19,508.02,Unlimited,SBD,M,
Boys,89.81,10,Asa Townson,Terrell,89.72,201.85,129.27,174.63,505.76,Unlimited,SBD,M,
Boys,89.81,11,John Plaster,McKinney,84.46,192.78,92.99,204.12,489.88,Unlimited,SBD,M,
Boys,89.81,12,Niehmiah Borner,Duncanville,82.64,192.78,99.79,192.78,485.34,Unlimited,SBD,M,
Boys,89.81,13,Nolan Oliver,Everman,85,183.7,108.86,183.7,476.27,Unlimited,SBD,M,
Boys,89.81,14,Jesse Arriaga,Corsicana,84.91,170.1,113.4,188.24,471.74,Unlimited,SBD,M,
Boys,89.81,15,Hudson Young,Quinlan Ford,84.73,165.56,95.25,181.44,442.25,Unlimited,SBD,M,
Boys,89.81,16,Wyatt Blann,Nevada Community,89.09,161.03,88.45,158.76,408.23,Unlimited,SBD,M,
Boys,89.81,17,Slayton Starett,North Forney,85.09,142.88,92.99,151.95,387.82,Unlimited,SBD,M,
Boys,99.79,1,Marc Calderon,Ferris,96.8,254.01,167.83,238.14,659.98,Unlimited,SBD,M,
Boys,99.79,2,Jesse Mauricio,Ennis,99.34,263.08,167.83,208.65,639.57,Unlimited,SBD,M,
Boys,99.79,3,Nathan Fraire,Garland Naaman Forest,97.52,244.94,158.76,231.33,635.03,Unlimited,SBD,M,
Boys,99.79,4,Kevin Espinal,Forney,99.61,251.74,170.1,210.92,632.76,Unlimited,SBD,M,
Boys,99.79,5,Jj Goode,Wills Point,95.89,238.14,172.37,217.72,628.23,Unlimited,SBD,M,
Boys,99.79,6,Roderick Hudson,Mesquite Horn,96.98,219.99,147.42,231.33,598.74,Unlimited,SBD,M,
Boys,99.79,7,Jesus Alanis-Zamago,Pollok Central,99.79,226.8,147.42,219.99,594.21,Unlimited,SBD,M,
Boys,99.79,8,Caden Newton,Forney,99.61,229.06,149.69,174.63,553.38,Unlimited,SBD,M,
Boys,99.79,9,Landry Hopkins,Forney,95.44,197.31,142.88,197.31,537.51,Unlimited,SBD,M,
Boys,99.79,10,Garrett Taylor,Nevada Community,94.71,192.78,147.42,195.04,535.24,Unlimited,SBD,M,
Boys,99.79,11,Adryk Duran,Corsicana,96.98,199.58,117.93,210.92,528.44,Unlimited,SBD,M,
Boys,99.79,12,Jesus Gonzales,Ferris,95.25,183.7,142.88,195.04,521.63,Unlimited,SBD,M,
Boys,99.79,13,Austin States,Quinlan Ford,94.89,195.04,113.4,197.31,505.76,Unlimited,SBD,M,
Boys,99.79,14,Payton Wallen,Quinlan Ford,97.07,197.31,111.13,188.24,496.68,Unlimited,SBD,M,
Boys,99.79,15,Ashton Harrington,Mesquite Poteet,90.45,183.7,120.2,183.7,487.61,Unlimited,SBD,M,
Boys,99.79,16,Eli Mata,Wills Point,92.53,185.97,124.74,170.1,480.81,Unlimited,SBD,M,
Boys,99.79,17,Selah Smith,Sunnyvale,94.8,158.76,104.33,204.12,467.2,Unlimited,SBD,M,
Boys,99.79,18,Mahki Frazier,McKinney,96.43,158.76,113.4,181.44,453.59,Unlimited,SBD,M,
Boys,99.79,DQ,Ethan Samuel,Sunnyvale,97.16,,,,,Unlimited,SBD,M,
Boys,109.77,1,Bryten Fields,Ennis,103.78,299.37,199.58,247.21,746.16,Unlimited,SBD,M,
Boys,109.77,2,Robert McMillan,Everman,108.59,265.35,163.29,219.99,648.64,Unlimited,SBD,M,
Boys,109.77,3,Anthony Wynne,Terrell,104.96,265.35,158.76,210.92,635.03,Unlimited,SBD,M,
Boys,109.77,4,Juan Zamarripa,Pollok Central,109.5,244.94,124.74,219.99,589.67,Unlimited,SBD,M,
Boys,109.77,5,Blaze Flanagan,Sunnyvale,109.59,242.67,147.42,195.04,585.13,Unlimited,SBD,M,
Boys,109.77,6,Jhoel Dionet,Corsicana,106.96,219.99,127.01,226.8,573.79,Unlimited,SBD,M,
Boys,109.77,7,Fidel Gonzalez,Corsicana,102.6,208.65,133.81,229.06,571.53,Unlimited,SBD,M,
Boys,109.77,8,Cash Lewis,Forney,102.42,204.12,156.49,206.38,566.99,Unlimited,SBD,M,
Boys,109.77,9,Sean Lee,Terrell,109.68,204.12,122.47,210.92,537.51,Unlimited,SBD,M,
Boys,109.77,10,Braylen Tennison,Mesquite Poteet,109.23,210.92,108.86,210.92,530.7,Unlimited,SBD,M,
Boys,109.77,11,Diego Cuara,Forney,105.87,208.65,129.27,190.51,528.44,Unlimited,SBD,M,
Boys,109.77,12,Jared Guajardo,Terrell,100.43,197.31,142.88,183.7,523.9,Unlimited,SBD,M,
Boys,109.77,13,Jaylen Manning,Duncanville,103.24,204.12,113.4,204.12,521.63,Unlimited,SBD,M,
Boys,109.77,14,Evandre Wright,Mesquite Poteet,101.06,170.1,136.08,199.58,505.76,Unlimited,SBD,M,
Boys,109.77,15,Roderick Smith,Garland Naaman Forest,102.15,183.7,115.67,206.38,505.76,Unlimited,SBD,M,
Boys,109.77,16,Hunter Rawlins,Nevada Community,101.51,174.63,102.06,206.38,483.08,Unlimited,SBD,M,
Boys,109.77,17,Ethan Davis,Duncanville,108.68,183.7,113.4,174.63,471.74,Unlimited,SBD,M,
Boys,109.77,18,Justin Queneau,Nevada Community,101.42,183.7,124.74,158.76,467.2,Unlimited,SBD,M,
Boys,109.77,19,Da'Corien Gray,Everman,103.87,174.63,111.13,170.1,455.86,Unlimited,SBD,M,
Boys,109.77,20,Kemona Kanayo,Sunnyvale,107.14,179.17,97.52,176.9,453.59,Unlimited,SBD,M,
Boys,109.77,21,Benito Oviedo,Wills Point,104.78,172.37,124.74,145.15,442.25,Unlimited,SBD,M,
Boys,109.77,DQ,Joiner Damion,Canton,103.96,213.19,104.33,,,Unlimited,SBD,M,
Boys,109.77,DQ,Semir Said,Crandall,109.32,124.74,,,,Unlimited,SBD,M,
Boys,124.74,1,Rafael Perdomo,Garland Naaman Forest,123.74,367.41,226.8,272.16,866.36,Unlimited,SBD,M,
Boys,124.74,2,Alyric Brown,Sunnyvale,120.93,297.1,158.76,278.96,734.82,Unlimited,SBD,M,
Boys,124.74,3,Michkeal Kennedy,Terrell,114.03,249.48,192.78,226.8,669.05,Unlimited,SBD,M,
Boys,124.74,4,Michael Taylor,Pollok Central,115.58,258.55,158.76,247.21,664.51,Unlimited,SBD,M,
Boys,124.74,5,Kutter Vlasin,Forney,124.47,272.16,149.69,215.46,637.3,Unlimited,SBD,M,
Boys,124.74,6,Donovan Dory,North Forney,120.11,226.8,142.88,238.14,607.81,Unlimited,SBD,M,
Boys,124.74,7,Rudy Moya,Ennis,116.39,226.8,142.88,188.24,557.92,Unlimited,SBD,M,
Boys,124.74,8,Kobe Parks,Everman,122.02,215.46,151.95,188.24,555.65,Unlimited,SBD,M,
Boys,124.74,9,Matthew Diosdado,Forney,122.56,226.8,142.88,183.7,553.38,Unlimited,SBD,M,
Boys,124.74,10,Isaiah Perdomo,Garland Naaman Forest,118.3,190.51,154.22,199.58,544.31,Unlimited,SBD,M,
Boys,124.74,11,Mathew Garcia,North Forney,118.93,197.31,136.08,204.12,537.51,Unlimited,SBD,M,
Boys,124.74,12,Carson Baskins,Terrell,123.74,215.46,124.74,190.51,530.7,Unlimited,SBD,M,
Boys,124.74,13,Connor Neff,Sunnyvale,117.21,197.31,111.13,192.78,501.22,Unlimited,SBD,M,
Boys,124.74,14,Kelechukwu Ekwu,Sunnyvale,117.03,195.04,102.06,199.58,496.68,Unlimited,SBD,M,
Boys,124.74,15,Rodi Baker,Mesquite Poteet,111.67,174.63,115.67,201.85,492.15,Unlimited,SBD,M,
Boys,124.74,16,Alyk Perkins,Pollok Central,113.58,170.1,115.67,174.63,460.4,Unlimited,SBD,M,
Boys,124.74,17,Dontae Moreland,Mesquite Poteet,111.58,165.56,92.99,158.76,417.3,Unlimited,SBD,M,
Boys,124.74,18,Aiden Williams,Duncanville,121.65,129.27,102.06,154.22,385.55,Unlimited,SBD,M,
Boys,124.74,19,Alex Santos,Nevada Community,112.49,131.54,90.72,108.86,331.12,Unlimited,SBD,M,
Boys,124.74,20,Jevon Young,Everman,124.01,197.31,,,197.31,Unlimited,S,M,
Boys,139.71,1,Luke Rodriguez,Forney,132,344.73,183.7,249.48,777.91,Unlimited,SBD,M,
Boys,139.71,2,Hugo Lopez,Forney,132.45,294.84,174.63,233.6,703.07,Unlimited,SBD,M,
Boys,139.71,3,Bryan Sanchez,Quinlan Ford,133.63,272.16,156.49,226.8,655.44,Unlimited,SBD,M,
Boys,139.71,4,Tayhios Page,Everman,135.81,263.08,174.63,215.46,653.17,Unlimited,SBD,M,
Boys,139.71,5,Johnny Mancera,Ferris,137.44,238.14,188.24,183.7,610.08,Unlimited,SBD,M,
Boys,139.71,6,Jack Scott,Nevada Community,131.09,185.97,170.1,204.12,560.19,Unlimited,SBD,M,
Boys,139.71,7,Kameron Newhouse,Duncanville,134.9,192.78,129.27,219.99,542.04,Unlimited,SBD,M,
Boys,139.71,8,Leandro Escobar,Garland Naaman Forest,132.27,217.72,120.2,195.04,532.97,Unlimited,SBD,M,
Boys,139.71,9,AJ Brown,Duncanville,132.63,204.12,124.74,201.85,530.7,Unlimited,SBD,M,
Boys,139.71,10,Keith Dotie,Mesquite Poteet,130.36,176.9,133.81,204.12,514.83,Unlimited,SBD,M,
Boys,139.71,11,Bradon Bateman,North Forney,128.37,204.12,102.06,188.24,494.42,Unlimited,SBD,M,
Boys,139.71,12,Dailon Donaldson,Everman,132.18,181.44,97.52,149.69,428.64,Unlimited,SBD,M,
Boys,139.71,DQ,Flavio Ortiz,Ferris,129,231.33,,,,Unlimited,SBD,M,
Boys,139.71+,1,Jorge Ramos,Corsicana,160.57,272.16,201.85,219.99,694,Unlimited,SBD,M,
Boys,139.71+,2,Ameer Ross,Duncanville,172.64,272.16,138.35,219.99,630.49,Unlimited,SBD,M,
Boys,139.71+,3,Javier Alanis-Zamago,Pollok Central,168.92,201.85,142.88,156.49,501.22,Unlimited,SBD,M,
Boys,139.71+,4,Isaac Williams,Everman,163.93,142.88,70.31,172.37,385.55,Unlimited,SBD,M,
