Division,WeightClassKg,Place,Name,Team,BodyweightKg,Best3SquatKg,Best3BenchKg,Best3DeadliftKg,TotalKg,Equipment,Event,Sex,BirthDate
Boys,51.71,1,Daniel Limon,La Joya Juarez-Lincoln,51.26,136.08,74.84,145.15,356.07,Unlimited,SBD,M,
Boys,51.71,2,Matthew Granados,Mercedes,43.91,61.23,54.43,90.72,206.38,Unlimited,SBD,M,
Boys,51.71,3,Derek Vega,La Joya,50.17,61.23,52.16,90.72,204.12,Unlimited,SBD,M,
Boys,51.71,4,Pedro Villarreal,La Joya,45.09,52.16,45.36,61.23,158.76,Unlimited,SBD,M,
Boys,51.71,DQ,Caleb Moreno,La Joya,51.35,,,,,Unlimited,SBD,M,
Boys,55.79,1,Gerardo Sanchez,Mercedes,54.52,181.44,83.91,208.65,474,Unlimited,SBD,M,
Boys,55.79,2,Cesar Canche,La Joya Palmview,55.79,140.61,83.91,176.9,401.43,Unlimited,SBD,M,
Boys,55.79,3,Norberto Garza,La Joya,55.07,142.88,77.11,149.69,369.68,Unlimited,SBD,M,
Boys,55.79,4,Erasmo Rodriguez,La Joya,55.07,138.35,74.84,149.69,362.87,Unlimited,SBD,M,
Boys,55.79,5,Ivan Ramirez,La Joya Juarez-Lincoln,54.34,124.74,61.23,129.27,315.25,Unlimited,SBD,M,
Boys,55.79,6,Ace Reyna,La Joya,55.25,122.47,68.04,124.74,315.25,Unlimited,SBD,M,
Boys,59.87,1,Ulises Enriquez,Mercedes,59.87,210.92,124.74,213.19,548.85,Unlimited,SBD,M,
Boys,59.87,2,Melvin Sandoval,La Joya,59.51,149.69,90.72,183.7,424.11,Unlimited,SBD,M,
Boys,67.13,1,Devon Trevino,Mercedes,65.59,240.4,136.08,244.94,621.42,Unlimited,SBD,M,
Boys,67.13,2,Isaiah Castro,Mercedes,66.59,244.94,149.69,226.8,621.42,Unlimited,SBD,M,
Boys,67.13,3,Victor Hernandez,Rio Grande City Grulla,66.86,215.46,131.54,190.51,537.51,Unlimited,SBD,M,
Boys,67.13,4,Jose Williams,La Joya Juarez-Lincoln,64.86,185.97,124.74,192.78,503.49,Unlimited,SBD,M,
Boys,67.13,5,Brian Maldonado,Mercedes,67.13,192.78,90.72,213.19,496.68,Unlimited,SBD,M,
Boys,67.13,DQ,Jose Gonzalez,La Joya Palmview,63.41,,,,,Unlimited,SBD,M,
Boys,74.84,1,Armando Chapa,La Joya Palmview,74.12,265.35,172.37,226.8,664.51,Unlimited,SBD,M,
Boys,74.84,2,Jaden Alaniz,La Joya,73.12,226.8,131.54,247.21,605.55,Unlimited,SBD,M,
Boys,74.84,3,Damian Villapando,La Joya,70.13,238.14,117.93,206.38,562.45,Unlimited,SBD,M,
Boys,74.84,4,Victor Hernandez,La Joya Juarez-Lincoln,74.75,215.46,120.2,199.58,535.24,Unlimited,SBD,M,
Boys,74.84,5,Jose Morales,Rio Grande City,72.48,120.2,97.52,154.22,371.95,Unlimited,SBD,M,
Boys,74.84,6,Felipe Rincon,La Joya Juarez-Lincoln,73.03,136.08,83.91,133.81,353.8,Unlimited,SBD,M,
Boys,74.84,7,Roberto Salinas,La Joya Palmview,74.57,124.74,68.04,145.15,337.93,Unlimited,SBD,M,
Boys,82.1,1,Javier Garcia,Mercedes,79.74,183.7,115.67,183.7,483.08,Unlimited,SBD,M,
Boys,82.1,2,Humberto Alvarez,La Joya Juarez-Lincoln,82.1,165.56,97.52,165.56,428.64,Unlimited,SBD,M,
Boys,82.1,DQ,Ismael Garza,La Joya,75.39,,,,,Unlimited,SBD,M,
Boys,82.1,DQ,Angel Chapa,La Joya Palmview,82.1,,,,,Unlimited,SBD,M,
Boys,82.1,DQ,Eusebio Garcia,Rio Grande City,80.29,,,,,Unlimited,SBD,M,
Boys,89.81,1,Darren Molina,Rio Grande City,88.27,233.6,145.15,226.8,605.55,Unlimited,SBD,M,
Boys,89.81,2,Aaron Benavidez,Rio Grande City,88.27,226.8,122.47,249.48,598.74,Unlimited,SBD,M,
Boys,89.81,3,Deven Becerra,Rio Grande City Grulla,88.68,206.38,124.74,174.63,505.76,Unlimited,SBD,M,
Boys,89.81,4,Jonathan Salinas,Rio Grande City,83.01,167.83,113.4,192.78,474,Unlimited,SBD,M,
Boys,89.81,5,Emmanuel Aldana,La Joya Juarez-Lincoln,89.09,165.56,99.79,201.85,467.2,Unlimited,SBD,M,
Boys,89.81,6,Anthony Reyes,La Joya,87.09,156.49,127.01,165.56,449.06,Unlimited,SBD,M,
Boys,89.81,7,Luis Cruz,La Joya Juarez-Lincoln,89.81,129.27,83.91,145.15,358.34,Unlimited,SBD,M,
Boys,99.79,1,Ethan Anciso,Mercedes,99.79,244.94,183.7,233.6,662.24,Unlimited,SBD,M,
Boys,99.79,2,Pablo Solis,Rio Grande City,92.8,226.8,127.01,267.62,621.42,Unlimited,SBD,M,
Boys,99.79,3,Giovanni Garcia,La Joya Juarez-Lincoln,95.44,208.65,131.54,199.58,539.77,Unlimited,SBD,M,
Boys,99.79,4,Eloy Garcia,La Joya Palmview,91.99,215.46,124.74,195.04,535.24,Unlimited,SBD,M,
Boys,99.79,5,Cristian Ledezma,La Joya Palmview,97.16,183.7,136.08,208.65,528.44,Unlimited,SBD,M,
Boys,99.79,6,Pedro De La Garza,Rio Grande City,91.63,183.7,90.72,183.7,458.13,Unlimited,SBD,M,
Boys,99.79,DQ,Eduardo Herrera,La Joya Palmview,99.25,,,,,Unlimited,SBD,M,
Boys,99.79,DQ,Daniel Anzaldua,Mercedes,93.53,,,,,Unlimited,SBD,M,
Boys,109.77,1,Jesus Ortiz,Rio Grande City,108.32,263.08,151.95,249.48,664.51,Unlimited,SBD,M,
Boys,109.77,2,Pablo Botello,La Joya Palmview,109.23,233.6,165.56,226.8,625.96,Unlimited,SBD,M,
Boys,109.77,3,Yoan Perez,La Joya Juarez-Lincoln,107.95,226.8,127.01,235.87,589.67,Unlimited,SBD,M,
Boys,109.77,4,Angel Trujillo,Mercedes,109.59,226.8,122.47,215.46,564.72,Unlimited,SBD,M,
Boys,109.77,5,Raul Martinez,Mercedes,103.92,188.24,92.99,142.88,424.11,Unlimited,SBD,M,
Boys,109.77,6,Emmanuel Lopez,Rio Grande City,102.15,140.61,97.52,147.42,385.55,Unlimited,SBD,M,
Boys,109.77,DQ,Alex Tovar,La Joya Juarez-Lincoln,108.95,242.67,145.15,,,Unlimited,SBD,M,
Boys,124.74,1,Oliver Hernandez,Mercedes,119.02,265.35,174.63,229.06,669.05,Unlimited,SBD,M,
Boys,124.74,2,Julio Garcia,La Joya Juarez-Lincoln,119.34,204.12,131.54,188.24,523.9,Unlimited,SBD,M,
Boys,124.74,3,Jesse Ramirez,La Joya Palmview,122.11,102.06,92.99,165.56,360.61,Unlimited,SBD,M,
Boys,124.74,DQ,Damasio Almaguer,La Joya Palmview,123.56,219.99,,,,Unlimited,SBD,M,
Boys,124.74,DQ,Noe De la O,La Joya Palmview,122.65,174.63,,,,Unlimited,SBD,M,
Boys,124.74,DQ,Jose Cordova,La Joya Palmview,123.74,,,,,Unlimited,SBD,M,
Boys,124.74,DQ,Christian Enriquez,Rio Grande City Grulla,119.2,,,,,Unlimited,SBD,M,
Boys,139.71,1,Christopher Morales,Rio Grande City,134.35,306.17,167.83,235.87,709.87,Unlimited,SBD,M,
Boys,139.71,2,Johnny Becerra,Rio Grande City Grulla,132.04,272.16,149.69,181.44,603.28,Unlimited,SBD,M,
Boys,139.71,3,Derrin Borrego,Rio Grande City,127.55,215.46,151.95,192.78,560.19,Unlimited,SBD,M,
Boys,139.71,4,Michael Rivera,La Joya Palmview,139.34,151.95,104.33,158.76,415.04,Unlimited,SBD,M,
Boys,139.71+,1,Lizandro Garcia,Rio Grande City Grulla,142.52,240.4,142.88,190.51,573.79,Unlimited,SBD,M,
Boys,139.71+,2,Alexander Sosa,La Joya,160.93,174.63,124.74,183.7,483.08,Unlimited,SBD,M,
Boys,,NS,Max Barrera,Rio Grande City Grulla,,,,,,Unlimited,SBD,M,
Boys,,NS,Rosbel Lopez,Rio Grande City Grulla,,,,,,Unlimited,SBD,M,
Boys,,NS,Jose Pena Jr,Rio Grande City Grulla,,,,,,Unlimited,SBD,M,
Boys,,NS,Raul Galvan,Rio Grande City Grulla,,,,,,Unlimited,SBD,M,
Boys,,NS,Brandon Lopez,Rio Grande City Grulla,,,,,,Unlimited,SBD,M,
Boys,,NS,Jesus Marroquin,La Joya Juarez-Lincoln,,,,,,Unlimited,SBD,M,
