Place,Name,Sex,BirthDate,Age,Country,Equipment,Division,BodyweightKg,WeightClassKg,Squat1Kg,Squat2Kg,Squat3Kg,Squat4Kg,Best3SquatKg,Bench1Kg,Bench2Kg,Bench3Kg,Bench4Kg,Best3BenchKg,Deadlift1Kg,Deadlift2Kg,Deadlift3Kg,Deadlift4Kg,Best3DeadliftKg,TotalKg,Event
1,Olivia Pooley,F,2000-09-09,,New Zealand,Wraps,F-JR,61.5,67.5,70,75,80,,80,42.5,45,-47.5,,45,100,107.5,112.5,,112.5,237.5,SBD
1,Ella White,F,2000-03-28,,New Zealand,Wraps,F-JR,78.6,82.5,125,135,-145,,135,65,70,-72.5,,70,130,140,150,,150,355,SBD
1,Maia Carrington,F,2000-05-05,,New Zealand,Wraps,F-JR,125.3,110+,-190,195,-210,,195,112.5,115,-117.5,,115,210,220,-225,,220,530,SBD
1,Cat Seeney,F,1978-03-30,,New Zealand,Wraps,F-M2R,51.8,52,85,90,-95,-96,90,55,57.5,-60,-62.5,57.5,105,110,-117.5,117.5,110,257.5,SBD
1,Anna McCardle,F,1977-09-15,,New Zealand,Wraps,F-M2R,88.5,90,150,160,-170,-180,160,90,100,-105,,100,160,170,180,,180,440,SBD
1,Stephanie Joseph,F,,54,New Zealand,Wraps,F-M3R,66.4,67.5,70,75,80,,80,32.5,35,-40,,35,90,100,110,,110,225,SBD
1,Caroline Webbon,F,1973-03-11,,New Zealand,Wraps,F-M3R,76.1,82.5,87.5,92.5,97.5,101,97.5,52.5,55,57.5,60,57.5,122.5,127.5,132.5,135,132.5,287.5,SBD
1,Gay Hale,F,1953-10-01,,New Zealand,Wraps,F-M7R,70.7,75,-85,85,-90,90,85,40,42.5,45,,45,95,105,110,115,110,240,SBD
1,Amber Brine,F,1985-09-19,,New Zealand,Wraps,F-OR,64,67.5,142.5,152.5,157.5,-160,157.5,77.5,-82.5,82.5,,82.5,142.5,156,160,,160,400,SBD
2,Sharnae Rowland,F,1998-09-13,,New Zealand,Wraps,F-OR,66.6,67.5,-145,150,155,,155,-92.5,92.5,-95,,92.5,130,137.5,145,,145,392.5,SBD
1,Penny Morley,F,1986-04-01,,New Zealand,Wraps,F-OR,74.7,75,-135,135,145,,145,90,95,100,-102.5,100,150,160,170,-175,170,415,SBD
2,Brooke Pita,F,1991-04-22,,New Zealand,Wraps,F-OR,74.7,75,110,115,-120,,115,60,-62.5,-62.5,,60,135,145,152.5,,152.5,327.5,SBD
1,Tyra Todd,F,,25,New Zealand,Wraps,F-OR,79.1,82.5,102.5,110,-112.5,,110,55,57.5,-60,,57.5,155,162.5,-170,,162.5,330,SBD
1,Abba Samman,F,1993-02-25,,New Zealand,Wraps,F-OR,94.3,100,170,180,190,,190,80,87.5,92.5,,92.5,160,170,180,,180,462.5,SBD
2,Lesley Hames,F,1984-12-12,,New Zealand,Wraps,F-OR,95,100,115,130,,,130,65,70.5,-75,,70.5,160,172.5,182.5,-186,182.5,383,SBD
1,Kayla Watene,F,1996-05-17,,New Zealand,Wraps,F-OR,108.2,110,90,100,110,,110,52.5,57.5,60,,60,135,145,152.5,,152.5,322.5,SBD
1,Jenna Mayo,F,1987-09-05,,New Zealand,Wraps,F-OR,114.6,110+,107.5,110,115,,115,85,87.5,90,92.5,90,135,145,155,160,155,360,SBD
DQ,Chloe Jones,F,2008-04-28,,New Zealand,Wraps,F-T1R,88.9,90,-75,82.5,-91,91,82.5,-50,-56,-56,,,120,132.5,140,,140,,SBD
DQ,Milla Botha,F,2006-06-16,,New Zealand,Wraps,F-T2R,62.4,67.5,95,-100,100,-105,100,-40,-42.5,-45,,,100,105,110,,110,,SBD
1,Emma Birch,F,2004-03-31,,New Zealand,Wraps,F-T3R,74.1,75,115,120.5,122.5,,122.5,76,-80,-80,-80,76,155,166,-170,,166,364.5,SBD
1,Danielle Maurice,F,1984-05-17,,New Zealand,Raw,F-OR,72.2,75,,,,,,50,55,-60,,55,,,,,,55,B
1,Rach Young,F,,37,New Zealand,Raw,F-OR,89.4,90,,,,,,65,70,-72.5,,70,,,,,,70,B
1,James Baldwin #4,M,2001-11-07,,New Zealand,Wraps,M-JR,99.1,100,230,250,265,,265,170,183,-185,,183,230,260,-270,,260,708,SBD
1,Jared Seeney,M,1981-12-19,,New Zealand,Wraps,M-M1R,87.8,90,170,180,190,,190,125,130,,,130,230,240,,,240,560,SBD
2,Andy Barrett,M,,43,New Zealand,Wraps,M-M1R,88.7,90,110,125,140,,140,110,125,-135,,125,170,190,210,,210,475,SBD
1,Chris Brine,M,1983-10-06,,New Zealand,Wraps,M-M1R,98.5,100,260,275,-287.5,,275,120,130,140,,140,270.5,-290,300,-305,300,715,SBD
1,Rob Blackett,M,1983-03-07,,New Zealand,Wraps,M-M1R,107.4,110,180,190,200,,200,80,90,-100,,90,170,190,-210,,190,480,SBD
1,Aaron McKay,M,1981-01-04,,New Zealand,Wraps,M-M1R,160.8,140+,-280,305,325,,325,160,180,,,180,220,240,260,,260,765,SBD
1,Te Awheroa Gilbert,M,1977-04-25,,New Zealand,Wraps,M-M2R,88.1,90,-160,160,167.5,,167.5,120,-125,-125,,120,175,185,-192.5,,185,472.5,SBD
1,Cory Harris #1,M,1989-03-25,,New Zealand,Wraps,M-OR,72.2,75,175,-182.5,-182.5,,175,90,97.5,100,,100,210,225,-230,,225,500,SBD
1,Ben Ericksen,M,1985-11-25,,New Zealand,Wraps,M-OR,88.3,90,-240,240,-255,,240,135,145,150,,150,235,245,-250,,245,635,SBD
2,Dave Jordan,M,,37,New Zealand,Wraps,M-OR,90,90,200,210,220,,220,140,145,-150,,145,210,220,225,,225,590,SBD
1,Enoka Fonoti,M,1990-12-18,,New Zealand,Wraps,M-OR,99.3,100,220,232.5,245,,245,120,125,127.5,,127.5,240,255,270,,270,642.5,SBD
2,Chris Longstaff,M,1986-06-15,,New Zealand,Wraps,M-OR,94.1,100,212.5,222.5,-227.5,,222.5,122.5,127.5,130,,130,190,202.5,210,,210,562.5,SBD
3,Michael Vermunt,M,1994-01-12,,New Zealand,Wraps,M-OR,100,100,182.5,192.5,-202.5,,192.5,125,-130,,,125,-215,225,-232.5,,225,542.5,SBD
4,Jordan Symes,M,1996-06-01,,New Zealand,Wraps,M-OR,99.7,100,160,170,-182.5,,170,110,112.5,-117.5,,112.5,220,230,-240,,230,512.5,SBD
1,Luke Povey,M,1985-11-25,,New Zealand,Wraps,M-OR,107.3,110,300.5,-307.5,,,300.5,140,150,160,,160,280,-292.5,292.5,-300.5,292.5,753,SBD
2,Patrick Schnarre,M,2000-02-07,,New Zealand,Wraps,M-OR,106.6,110,200,220,-245,,220,135,-145,150,,150,210,222.5,-235,,222.5,592.5,SBD
1,James Hollingshead,M,1990-02-07,,New Zealand,Wraps,M-OR,122.6,125,265,290,315,,315,165,180,190,,190,250,275,295,,295,800,SBD
2,Joe Chrisp,M,1988-09-28,,New Zealand,Wraps,M-OR,124.9,125,170,185,-210,,185,100,110,120,,120,175,190,225,,225,530,SBD
1,Luke Ellingford,M,2009-06-11,,New Zealand,Wraps,M-T1R,85.6,90,122.5,127.5,135,,135,62.5,70,-77.5,,70,130,140,155,,155,360,SBD
1,Aaron Rogers,M,2007-05-23,,New Zealand,Wraps,M-T2R,106,110,165,180,190,,190,125,132.5,-137.5,,132.5,230,240,245,,245,567.5,SBD
1,Dontae Anderson-Bryan,M,2006-11-09,,New Zealand,Wraps,M-T2R,116.4,125,-140,165,185,,185,85,95,-102.5,,95,-190,210,221,,221,501,SBD
1,Mad Mike Smith,M,,49,New Zealand,Wraps,M-M2R,88,90,185,197.5,207.5,217.5,207.5,,,,,,,,,,,207.5,S
1,Shaun Jensen,M,1996-12-10,,New Zealand,Wraps,M-OR,82.4,82.5,140,150,160,-162.5,160,,,,,,,,,,,160,S
1,Tim Vercoe,M,,43,New Zealand,Raw,M-M1R,121.7,125,,,,,,150,-165,-175,,150,,,,,,150,B
1,Bernie Hall,M,,48,New Zealand,Raw,M-M2R,99.5,100,,,,,,,,,,,260,275,285.5,,285.5,285.5,D
G,Izayah Drayton,M,2006-11-20,,New Zealand,Raw,M-T2R,81.8,82.5,,,,,,,,,,,240,260,-272.5,,260,260,D
