Division,WeightClassKg,Place,Name,Team,BodyweightKg,Best3SquatKg,Best3BenchKg,Best3DeadliftKg,TotalKg,Equipment,Event,Sex,BirthDate
Boys,51.71,1,Jake Stone,Clyde,41.91,133.81,102.06,81.65,317.51,Unlimited,SBD,M,
Boys,51.71,2,Derek Bewley,Sweetwater,43.54,88.45,61.23,86.18,235.87,Unlimited,SBD,M,
Boys,55.79,1,Konner Linebarger,San Angelo Grape Creek,52.71,145.15,68.04,142.88,356.07,Unlimited,SBD,M,
Boys,55.79,2,Gavin Talbert,San Angelo Grape Creek,55.25,106.59,72.57,131.54,310.71,Unlimited,SBD,M,
Boys,55.79,3,Blake Bankhead,Roscoe Highland,55.7,102.06,47.63,140.61,290.3,Unlimited,SBD,M,
Boys,59.87,1,Zane Durham,San Angelo Grape Creek,58.24,158.76,83.91,163.29,405.97,Unlimited,SBD,M,
Boys,59.87,2,Brock Brown,Santa Anna,59.87,120.2,77.11,140.61,337.93,Unlimited,SBD,M,
Boys,59.87,3,James Covington,Roby,59.33,113.4,63.5,145.15,322.05,Unlimited,SBD,M,
Boys,59.87,4,Joe Salazar,Sweetwater,59.06,104.33,65.77,117.93,288.03,Unlimited,SBD,M,
Boys,59.87,5,Daniel Orduna,Strawn,58.6,102.06,61.23,122.47,285.76,Unlimited,SBD,M,
Boys,67.13,1,Joel Gamino,Sweetwater,66.77,226.8,151.95,215.46,594.21,Unlimited,SBD,M,
Boys,67.13,2,Nic Lynn,Strawn,66.13,192.78,108.86,197.31,498.95,Unlimited,SBD,M,
Boys,67.13,3,Samuel Hack,Clyde,66.22,172.37,108.86,176.9,458.13,Unlimited,SBD,M,
Boys,67.13,4,Shane Ahearn,Strawn,66.68,158.76,99.79,149.69,408.23,Unlimited,SBD,M,
Boys,67.13,5,Daniel Davis,Sweetwater,62.14,124.74,83.91,147.42,356.07,Unlimited,SBD,M,
Boys,67.13,6,Hunter Greenway,Sweetwater,65.14,124.74,72.57,127.01,324.32,Unlimited,SBD,M,
Boys,67.13,7,Malachi Bentley,Valera Panther Creek,63.41,113.4,70.31,131.54,315.25,Unlimited,SBD,M,
Boys,67.13,8,Lane Leddy,Strawn,61.96,113.4,52.16,124.74,290.3,Unlimited,SBD,M,
Boys,67.13,DQ,Slade Beloat,Santa Anna,61.78,133.81,,,,Unlimited,SBD,M,
Boys,67.13,DQ,Jesie Brock,San Angelo Grape Creek,61.69,,,,,Unlimited,SBD,M,
Boys,74.84,1,Budah Schkade,San Angelo Grape Creek,72.12,226.8,145.15,226.8,598.74,Unlimited,SBD,M,
Boys,74.84,2,Corbin Martinez,Westbrook,74.57,172.37,163.29,172.37,508.02,Unlimited,SBD,M,
Boys,74.84,3,Gavin Jordahl,San Angelo Grape Creek,71.94,192.78,97.52,201.85,492.15,Unlimited,SBD,M,
Boys,74.84,4,Michael Barcenas,Strawn,71.49,181.44,113.4,181.44,476.27,Unlimited,SBD,M,
Boys,74.84,5,Ayden Yanez,Westbrook,73.12,172.37,122.47,176.9,471.74,Unlimited,SBD,M,
Boys,74.84,6,Ethan Holcomb,Sweetwater,73.57,170.1,108.86,183.7,462.66,Unlimited,SBD,M,
Boys,74.84,7,Johnny Fraga,Strawn,71.12,172.37,104.33,136.08,412.77,Unlimited,SBD,M,
Boys,74.84,8,Zech Stuber,Roscoe Highland,69.49,136.08,81.65,145.15,362.87,Unlimited,SBD,M,
Boys,74.84,9,Tobias Cerveny,Roby,72.21,129.27,88.45,142.88,360.61,Unlimited,SBD,M,
Boys,74.84,10,Remington Blythe,Hermleigh,74.48,120.2,86.18,149.69,356.07,Unlimited,SBD,M,
Boys,74.84,11,Markius Mcclure,Hermleigh,69.22,113.4,77.11,154.22,344.73,Unlimited,SBD,M,
Boys,74.84,DQ,Andrew Cruces,Westbrook,74.84,165.56,,,,Unlimited,SBD,M,
Boys,82.1,1,William Perry,Santa Anna,81.19,260.82,120.2,260.82,641.83,Unlimited,SBD,M,
Boys,82.1,2,Kayden Carpenter,San Angelo Grape Creek,77.11,208.65,124.74,206.38,539.77,Unlimited,SBD,M,
Boys,82.1,3,Kaden Gerhart,Clyde,79.38,176.9,145.15,199.58,521.63,Unlimited,SBD,M,
Boys,82.1,4,Eric Paredez,Clyde,80.74,195.04,131.54,192.78,519.36,Unlimited,SBD,M,
Boys,82.1,5,Jace Adames,Sweetwater,75.75,183.7,127.01,188.24,498.95,Unlimited,SBD,M,
Boys,82.1,6,Kaden Gutierrez,Westbrook,80.01,183.7,127.01,188.24,498.95,Unlimited,SBD,M,
Boys,82.1,7,Devin Pena,Sweetwater,82.1,154.22,68.04,149.69,371.95,Unlimited,SBD,M,
Boys,82.1,8,Hayden Blackwell,Roscoe Highland,75.48,136.08,95.25,138.35,369.68,Unlimited,SBD,M,
Boys,82.1,9,Aiden Smith,Hermleigh,80.74,115.67,74.84,131.54,322.05,Unlimited,SBD,M,
Boys,89.81,1,Isaac Silva,San Angelo Grape Creek,87.27,249.48,127.01,231.33,607.81,Unlimited,SBD,M,
Boys,89.81,2,Blaine Bohall,Sweetwater,83.28,174.63,113.4,226.8,514.83,Unlimited,SBD,M,
Boys,89.81,3,Chris Hernandez,Strawn,89.09,181.44,129.27,195.04,505.76,Unlimited,SBD,M,
Boys,89.81,4,Ben Spaulding,Roscoe Highland,88.54,158.76,136.08,170.1,464.93,Unlimited,SBD,M,
Boys,89.81,5,Emmitt Whiteley,Westbrook,82.55,151.95,111.13,167.83,430.91,Unlimited,SBD,M,
Boys,89.81,6,Ryan Rivera,Sweetwater,86.91,151.95,97.52,151.95,401.43,Unlimited,SBD,M,
Boys,89.81,7,Elijah Norton,Roby,88.18,122.47,111.13,165.56,399.16,Unlimited,SBD,M,
Boys,99.79,1,Tylan Balthrop,Roscoe Highland,98.88,267.62,183.7,222.26,673.58,Unlimited,SBD,M,
Boys,99.79,2,Owen Lee,Clyde,98.07,217.72,174.63,222.26,614.62,Unlimited,SBD,M,
Boys,99.79,3,Daylan McGee,Hermleigh,93.98,238.14,127.01,240.4,605.55,Unlimited,SBD,M,
Boys,99.79,4,Josh Salinas,Sweetwater,96.25,233.6,149.69,219.99,603.28,Unlimited,SBD,M,
Boys,99.79,5,Danny Sifuentes,Strawn,94.62,213.19,131.54,199.58,544.31,Unlimited,SBD,M,
Boys,99.79,6,Isidro Loya,Clyde,94.62,210.92,142.88,181.44,535.24,Unlimited,SBD,M,
Boys,99.79,7,Braxten Lopez,Roscoe Highland,96.43,174.63,102.06,204.12,480.81,Unlimited,SBD,M,
Boys,99.79,8,Brayden Crain,Roscoe Highland,90.81,102.06,102.06,142.88,347,Unlimited,SBD,M,
Boys,109.77,1,Isaiah Mares,Clyde,103.15,222.26,131.54,208.65,562.45,Unlimited,SBD,M,
Boys,109.77,2,Nick Purlee,Clyde,108.86,201.85,124.74,188.24,514.83,Unlimited,SBD,M,
Boys,109.77,3,Bo Kerr,Loraine,101.51,176.9,113.4,163.29,453.59,Unlimited,SBD,M,
Boys,109.77,4,Reid Campbell,Hermleigh,106.41,161.03,106.59,170.1,437.72,Unlimited,SBD,M,
Boys,109.77,5,David Adkisson,Roby,108.68,161.03,102.06,165.56,428.64,Unlimited,SBD,M,
Boys,109.77,6,Azeriah Moroles,San Angelo Grape Creek,105.32,136.08,90.72,181.44,408.23,Unlimited,SBD,M,
Boys,109.77,7,Zayden Harty,Hermleigh,108.86,120.2,79.38,142.88,342.46,Unlimited,SBD,M,
Boys,124.74,1,Ethan Adkins,Clyde,123.38,217.72,195.04,226.8,639.57,Unlimited,SBD,M,
Boys,124.74,2,Evan Bryan,Clyde,110.4,226.8,165.56,226.8,619.15,Unlimited,SBD,M,
Boys,124.74,3,Lucian Aguilar,Sweetwater,121.2,215.46,142.88,233.6,591.94,Unlimited,SBD,M,
Boys,124.74,4,Josiah Lujan,Loraine,109.95,204.12,133.81,226.8,564.72,Unlimited,SBD,M,
Boys,124.74,5,Kooper McWilliams,Roby,116.21,208.65,142.88,206.38,557.92,Unlimited,SBD,M,
Boys,124.74,6,Brayden Buckley,Westbrook,121.11,206.38,145.15,190.51,542.04,Unlimited,SBD,M,
Boys,124.74,7,Adrian Davilla,Sweetwater,122.65,208.65,147.42,172.37,528.44,Unlimited,SBD,M,
Boys,124.74,8,Hassani Myers,Sweetwater,119.29,190.51,117.93,142.88,451.32,Unlimited,SBD,M,
Boys,139.71,1,Brek Carlile,Clyde,126.55,215.46,163.29,210.92,589.67,Unlimited,SBD,M,
Boys,139.71,2,Evan Hurst,Clyde,132.9,185.97,120.2,183.7,489.88,Unlimited,SBD,M,
Boys,139.71,3,Adrian Hernandez,Loraine,124.83,181.44,99.79,192.78,474,Unlimited,SBD,M,
Boys,139.71+,1,Abel Lopez,Sweetwater,175.77,256.28,204.12,219.99,680.39,Unlimited,SBD,M,
Boys,139.71+,2,Lorenzo Longoria,San Angelo Grape Creek,143.97,226.8,124.74,183.7,535.24,Unlimited,SBD,M,
Boys,139.71+,3,Isaac Ruacho,Hermleigh,143.34,206.38,106.59,204.12,517.1,Unlimited,SBD,M,
Boys,139.71+,4,Aiden Pollock,San Angelo Grape Creek,151.5,161.03,104.33,188.24,453.59,Unlimited,SBD,M,
