Division,WeightClassKg,Place,Name,Team,BodyweightKg,Best3SquatKg,Best3BenchKg,Best3DeadliftKg,TotalKg,Equipment,Event,Sex,BirthDate
Boys,51.71,1,Joshwa Marquez,Hutto,47.17,81.65,54.43,104.33,240.4,Unlimited,SBD,M,
Boys,55.79,1,Jayden Earls,Pflugerville Connally,52.89,92.99,56.7,111.13,260.82,Unlimited,SBD,M,
Boys,55.79,2,Christian Vidauri,Pflugerville,54.88,63.5,56.7,70.31,190.51,Unlimited,SBD,M,
Boys,59.87,1,Chris Gonzalez,Thrall,57.61,120.2,68.04,131.54,319.78,Unlimited,SBD,M,
Boys,59.87,2,Jaxton Paro,Thrall,58.97,99.79,58.97,120.2,278.96,Unlimited,SBD,M,
Boys,59.87,DQ,Brandon Nguyen,Pflugerville Hendrickson,59.87,92.99,70.31,83.91,,Unlimited,SBD,M,
Boys,59.87,DQ,Zach Brown,Pflugerville Hendrickson,59.87,92.99,61.23,124.74,,Unlimited,SBD,M,
Boys,67.13,1,Ty Matthews,Thrall,66.68,151.95,99.79,147.42,399.16,Unlimited,SBD,M,
Boys,67.13,2,Braxten Smith,Pflugerville,65.77,124.74,81.65,167.83,374.21,Unlimited,SBD,M,
Boys,67.13,3,Elijah Arnold,Pflugerville Connally,66.77,129.27,74.84,151.95,356.07,Unlimited,SBD,M,
Boys,67.13,4,Josh Winkelman,Pflugerville Hendrickson,63.87,127.01,88.45,138.35,353.8,Unlimited,SBD,M,
Boys,67.13,5,Zaden Howard,Pflugerville Connally,62.05,106.59,79.38,158.76,344.73,Unlimited,SBD,M,
Boys,67.13,6,Sam Clark,Thrall,67.13,113.4,92.99,133.81,340.19,Unlimited,SBD,M,
Boys,67.13,7,Aidin Smart,Pflugerville Connally,62.96,115.67,72.57,127.01,315.25,Unlimited,SBD,M,
Boys,67.13,8,Sam Herrera,Thrall,65.77,106.59,65.77,113.4,285.76,Unlimited,SBD,M,
Boys,67.13,DQ,Izidio Martins,Pflugerville Hendrickson,62.78,81.65,52.16,104.33,,Unlimited,SBD,M,
Boys,74.84,1,Jamal Abercrumbia,Pflugerville Connally,69.4,219.99,127.01,233.6,580.6,Unlimited,SBD,M,
Boys,74.84,2,Rhyder Miller,Pflugerville,73.03,183.7,102.06,176.9,462.66,Unlimited,SBD,M,
Boys,74.84,3,Andy Toddeh,Hutto,73.94,179.17,90.72,179.17,449.06,Unlimited,SBD,M,
Boys,74.84,4,Jonah Garcia,Pflugerville Connally,73.57,161.03,129.27,151.95,442.25,Unlimited,SBD,M,
Boys,74.84,5,Oj Jabeth,Pflugerville Connally,71.67,149.69,90.72,167.83,408.23,Unlimited,SBD,M,
Boys,74.84,6,Omar Prieto-Davila,Pflugerville Hendrickson,73.39,145.15,88.45,170.1,403.7,Unlimited,SBD,M,
Boys,74.84,7,Khalil Stewart,Pflugerville Hendrickson,67.59,133.81,111.13,142.88,387.82,Unlimited,SBD,M,
Boys,74.84,8,Mathew Jimenez,Pflugerville Hendrickson,67.59,142.88,102.06,124.74,369.68,Unlimited,SBD,M,
Boys,74.84,9,Chris Sewalson,Pflugerville Hendrickson,74.48,117.93,83.91,158.76,360.61,Unlimited,SBD,M,
Boys,74.84,10,Miles Ybarra,Pflugerville Hendrickson,71.21,124.74,83.91,145.15,353.8,Unlimited,SBD,M,
Boys,74.84,11,Logan Heselmeyer,Thrall,73.48,113.4,97.52,138.35,349.27,Unlimited,SBD,M,
Boys,74.84,12,Taj Gaddy,Pflugerville Connally,73.12,106.59,74.84,127.01,308.44,Unlimited,SBD,M,
Boys,74.84,13,Alexei Glover,Thrall,70.31,111.13,68.04,124.74,303.91,Unlimited,SBD,M,
Boys,74.84,14,Levi Randiy,Thrall,73.48,102.06,79.38,111.13,292.57,Unlimited,SBD,M,
Boys,74.84,DQ,Rylan Navarro,Pflugerville Hendrickson,74.75,97.52,65.77,115.67,,Unlimited,SBD,M,
Boys,74.84,DQ,Jacob Hackerd,Pflugerville Hendrickson,73.48,86.18,58.97,120.2,,Unlimited,SBD,M,
Boys,74.84,DQ,Cort Reiland,Pflugerville Hendrickson,69.04,97.52,65.77,120.2,,Unlimited,SBD,M,
Boys,82.1,1,D'Marion Speller,Pflugerville,81.19,219.99,145.15,224.53,589.67,Unlimited,SBD,M,
Boys,82.1,2,Kaden Nguyen,Pflugerville Connally,81.47,226.8,149.69,204.12,580.6,Unlimited,SBD,M,
Boys,82.1,3,Josh Webb,Pflugerville Connally,79.29,174.63,129.27,165.56,469.47,Unlimited,SBD,M,
Boys,82.1,4,Jackson King,Pflugerville,79.38,170.1,106.59,192.78,469.47,Unlimited,SBD,M,
Boys,82.1,5,Carnell Spicer,Pflugerville Hendrickson,81.92,163.29,108.86,172.37,444.52,Unlimited,SBD,M,
Boys,82.1,6,Kaleb Cooksey,Pflugerville Connally,81.37,158.76,90.72,158.76,408.23,Unlimited,SBD,M,
Boys,82.1,7,Hunter Hicks,Pflugerville Hendrickson,80.74,127.01,99.79,158.76,385.55,Unlimited,SBD,M,
Boys,82.1,8,Blake Widner,Thrall,76.2,117.93,86.18,136.08,340.19,Unlimited,SBD,M,
Boys,82.1,DQ,Shamus Russell,Pflugerville Hendrickson,77.38,97.52,77.11,127.01,,Unlimited,SBD,M,
Boys,82.1,DQ,Brandon Bradshaw,Pflugerville,81.19,,111.13,199.58,,Unlimited,SBD,M,
Boys,89.81,1,Edoyemwen Edomarhoirho,Pflugerville,84.37,219.99,124.74,233.6,578.33,Unlimited,SBD,M,
Boys,89.81,2,Jaydus Bell,Pflugerville Connally,86.18,195.04,120.2,197.31,512.56,Unlimited,SBD,M,
Boys,89.81,3,Paxson Heath,Pflugerville Hendrickson,85.28,183.7,113.4,190.51,487.61,Unlimited,SBD,M,
Boys,89.81,4,Alex Zepeda,Pflugerville Hendrickson,82.74,165.56,102.06,192.78,460.4,Unlimited,SBD,M,
Boys,89.81,5,Cruz Sanchez,Pflugerville Hendrickson,88.54,154.22,95.25,181.44,430.91,Unlimited,SBD,M,
Boys,89.81,6,Damari Reed,Pflugerville Connally,89.45,158.76,102.06,142.88,403.7,Unlimited,SBD,M,
Boys,89.81,7,Andre Nwagwu,Pflugerville Hendrickson,84.46,142.88,72.57,172.37,387.82,Unlimited,SBD,M,
Boys,89.81,8,Pete Vallejo,Pflugerville Hendrickson,86.55,145.15,83.91,154.22,383.29,Unlimited,SBD,M,
Boys,89.81,9,Didier Thorpe,Pflugerville Connally,85.82,133.81,83.91,158.76,376.48,Unlimited,SBD,M,
Boys,89.81,10,Bao Tran,Pflugerville,86.64,92.99,79.38,92.99,265.35,Unlimited,SBD,M,
Boys,99.79,1,Donovan Wright,Pflugerville,95.25,233.6,122.47,199.58,555.65,Unlimited,SBD,M,
Boys,99.79,2,Davion Haywood,Pflugerville,97.98,201.85,127.01,201.85,530.7,Unlimited,SBD,M,
Boys,99.79,3,Elijah Washington,Hutto,97.07,158.76,92.99,190.51,442.25,Unlimited,SBD,M,
Boys,99.79,4,Malcom Wheeler,Hutto,95.25,167.83,92.99,147.42,408.23,Unlimited,SBD,M,
Boys,99.79,5,Joshua Luna,Pflugerville Connally,96.62,151.95,95.25,156.49,403.7,Unlimited,SBD,M,
Boys,99.79,6,Isaiah Petty,Pflugerville Hendrickson,94.17,127.01,104.33,165.56,396.89,Unlimited,SBD,M,
Boys,99.79,7,David Narvaez,Pflugerville Hendrickson,92.44,156.49,88.45,142.88,387.82,Unlimited,SBD,M,
Boys,99.79,8,Azael Jimenez,Pflugerville Hendrickson,94.26,145.15,79.38,161.03,385.55,Unlimited,SBD,M,
Boys,99.79,9,Greyson Moehnke,Thrall,97.07,124.74,102.06,138.35,365.14,Unlimited,SBD,M,
Boys,99.79,10,Austin Barron,Pflugerville Hendrickson,94.71,115.67,83.91,142.88,342.46,Unlimited,SBD,M,
Boys,99.79,11,Eric Truan,Pflugerville Hendrickson,93.71,106.59,79.38,136.08,322.05,Unlimited,SBD,M,
Boys,99.79,DQ,Nathan Fuentes,Pflugerville Hendrickson,96.34,111.13,72.57,124.74,,Unlimited,SBD,M,
Boys,109.77,1,Melvin McPherson,Pflugerville Connally,108.68,226.8,115.67,167.83,510.29,Unlimited,SBD,M,
Boys,109.77,2,Theo Saldanha,Pflugerville Connally,106.05,188.24,97.52,192.78,478.54,Unlimited,SBD,M,
Boys,109.77,3,Kingston Porter,Pflugerville,107.95,179.17,117.93,142.88,439.98,Unlimited,SBD,M,
Boys,109.77,4,Jaiden Wallace,Pflugerville Hendrickson,103.87,131.54,83.91,151.95,367.41,Unlimited,SBD,M,
Boys,109.77,5,Jesus Gonzalez-celio,Pflugerville Hendrickson,105.32,142.88,77.11,145.15,365.14,Unlimited,SBD,M,
Boys,109.77,6,Colton Calabrese,Pflugerville Hendrickson,106.59,124.74,74.84,136.08,335.66,Unlimited,SBD,M,
Boys,124.74,1,Najm Aldoori,Pflugerville,124.74,235.87,124.74,208.65,569.26,Unlimited,SBD,M,
Boys,124.74,2,Greyson Armstrong,Hutto,119.29,215.46,147.42,188.24,551.11,Unlimited,SBD,M,
Boys,124.74,3,Zion Burnett,Pflugerville Connally,123.38,204.12,145.15,176.9,526.17,Unlimited,SBD,M,
Boys,124.74,4,Daniel Leon,Pflugerville Connally,120.66,158.76,129.27,197.31,485.34,Unlimited,SBD,M,
Boys,124.74,5,Fiti Pase,Pflugerville Connally,110.68,165.56,83.91,204.12,453.59,Unlimited,SBD,M,
Boys,124.74,6,Ethan Tworek,Pflugerville Hendrickson,111.67,142.88,79.38,154.22,376.48,Unlimited,SBD,M,
Boys,124.74,7,DaTrell Brock,Pflugerville Connally,118.39,138.35,102.06,136.08,376.48,Unlimited,SBD,M,
Boys,124.74,8,Noe Alcantar,Pflugerville Connally,117.48,115.67,102.06,133.81,351.53,Unlimited,SBD,M,
Boys,124.74,9,Ahmed Mohammed Ali,Pflugerville Hendrickson,113.67,95.25,79.38,138.35,312.98,Unlimited,SBD,M,
Boys,124.74,DQ,Levi Compton,Hutto,116.12,,,,,Unlimited,SBD,M,
Boys,139.71,1,Cooper Case,Round Rock Westwood,135.17,274.42,185.97,272.16,732.55,Unlimited,SBD,M,
Boys,139.71,2,Aiden Newbill,Pflugerville Connally,125.19,199.58,151.95,197.31,548.85,Unlimited,SBD,M,
Boys,139.71,3,Sebastian Vaquera,Pflugerville Connally,129.27,197.31,124.74,156.49,478.54,Unlimited,SBD,M,
Boys,139.71,4,Jysaiah Encarnacion,Hutto,133.81,124.74,124.74,158.76,408.23,Unlimited,SBD,M,
Boys,139.71,5,Jesse Shelly,Hutto,133.36,127.01,77.11,183.7,387.82,Unlimited,SBD,M,
Boys,139.71,DQ,Jayden Mack,Hutto,139.71,181.44,117.93,,,Unlimited,SBD,M,
Boys,139.71+,1,Allijah Ford,Pflugerville Hendrickson,140.7,124.74,102.06,183.7,410.5,Unlimited,SBD,M,
