Division,WeightClassKg,Place,Name,Team,BodyweightKg,Best3SquatKg,Best3BenchKg,Best3DeadliftKg,TotalKg,Equipment,Event,Sex,BirthDate
Boys,59.87,1,Noah Hernandez,Texas City,58.51,97.52,49.9,102.06,249.48,Unlimited,SBD,M,
Boys,67.13,1,Julian Rivera,Dawson,61.69,106.59,65.77,113.4,285.76,Unlimited,SBD,M,
Boys,67.13,2,Arthur Menedez,Texas City,61.42,77.11,68.04,124.74,269.89,Unlimited,SBD,M,
Boys,74.84,1,David Contreras,Pasadena Dobie,72.57,158.76,88.45,154.22,401.43,Unlimited,SBD,M,
Boys,74.84,2,James Torres,Texas City,74.39,122.47,95.25,129.27,347,Unlimited,SBD,M,
Boys,74.84,3,Evan Hoffman,Dawson,70.76,124.74,74.84,124.74,324.32,Unlimited,SBD,M,
Boys,74.84,4,Jacob Fogie,Dawson,68.95,124.74,61.23,115.67,301.64,Unlimited,SBD,M,
Boys,74.84,5,Clyde Votaw,Texas City,67.27,97.52,58.97,113.4,269.89,Unlimited,SBD,M,
Boys,99.79,1,Adriel Paredes,Texas City,93.44,181.44,83.91,167.83,433.18,Unlimited,SBD,M,
Boys,99.79,2,Kaden Clay,Texas City,94.98,158.76,106.59,167.83,433.18,Unlimited,SBD,M,
Boys,99.79,3,Dylan Wagner,Dawson,92.08,142.88,70.31,147.42,360.61,Unlimited,SBD,M,
Boys,99.79,4,Edgar Jiron,Texas City,94.48,142.88,68.04,142.88,353.8,Unlimited,SBD,M,
Boys,99.79,5,Alexander Salguero,Pasadena Dobie,91.63,127.01,,142.88,269.89,Unlimited,SD,M,
Boys,99.79,6,Aiden Witt,Dawson,94.35,102.06,61.23,102.06,265.35,Unlimited,SBD,M,
Boys,99.79,7,Everett Garza,Pasadena Dobie,93.44,95.25,,104.33,199.58,Unlimited,SD,M,
Boys,109.77,1,Julian Alvarez,Pasadena Dobie,105.23,170.1,117.93,183.7,471.74,Unlimited,SBD,M,
Boys,109.77,2,Cristiam Paredes,Texas City,102.6,176.9,102.06,185.97,464.93,Unlimited,SBD,M,
Boys,109.77,3,Tyler Henry,Dawson,101.15,138.35,88.45,142.88,369.68,Unlimited,SBD,M,
Boys,109.77,4,Sri Sai Chittampally,Dawson,102.51,117.93,77.11,124.74,319.78,Unlimited,SBD,M,
Boys,109.77,5,Mica Chapman,Texas City,107.95,115.67,61.23,136.08,312.98,Unlimited,SBD,M,
Boys,109.77,6,Anthony Salguero,Pasadena Dobie,102.97,,102.06,156.49,258.55,Unlimited,BD,M,
Boys,124.74,1,Pedro Garza,Pasadena Dobie,117.03,201.85,127.01,206.38,535.24,Unlimited,SBD,M,
Boys,124.74,2,Ryan Ngo,Pasadena Dobie,112.94,183.7,104.33,183.7,471.74,Unlimited,SBD,M,
Boys,124.74,3,Miguel Gallardo,Texas City,119.66,136.08,88.45,140.61,365.14,Unlimited,SBD,M,
Boys,124.74,4,Carlos Zuniga,Pasadena Dobie,117.03,167.83,,176.9,344.73,Unlimited,SD,M,
Boys,124.74,5,Robbie Wells,Dawson,110.4,102.06,65.77,90.72,258.55,Unlimited,SBD,M,
Boys,139.71,1,Manuel Tonche,Dawson,136.98,147.42,74.84,138.35,360.61,Unlimited,SBD,M,
